
{

"STATUS_CODE" : "statusCode" ,
"STATUS_MESSAGE" : "statusMessage",
"TABLE_NAME" : "tableName",
"RESULT" : "Result",


"CREATE_SUCCESS" : "Successfully Created",
"UPDATE_SUCCESS" : "Updated Successfully",
"DELETE_SUCCESS" : "Deleted successfully",
"INSERT_SUCCESS" : "Inserted Successfully",
"SAVE_SUCCESS" : "Successfully Saved",


"s100" : "Successfully Added Column",
"s101" : "Successfully Deleted Column",
"s102" : "Successfully Updated Column",
"s103" : "success",
"s104" : "Invalid token",
"s105" : "No User",
"s106" : "Unauthorized",
"s107" : "Error occured while getting the data",
"s108" : "err",
"s109" : "No Roles Assigned",
"s110" : "No rows affected",
"s111" : "No Services",
"s112" : "No data",
"s113" : "Duplicate entry, please try with valid data",

"s114" : "Insertion Failed",
"s115" : "Updation Failed",
"s116" : "Error occured while inserting",
"s117" : "Error occured while updating",
"s118" : "Error occured while deleting",
"s119" : "Error occured while adding column",
"s120" : "Error occured while dropping column",
"s121" : "DUP",
"s122" : "null",
"s123" : "NotMatched",
"s124" : "noUser",
"s125" : "No user found",
"s126" : "Invalid Request",
"s127" : "Your OTP has been sent to registered mobile, please enter to proceed",
"s128" : "Invalid OTP",
"s129":"inActive",






"OK" : "300",
"INVALID_TOKEN" : "204",
"UNAUTHORIZED" : "401",
"INTERNAL_ERROR" : "500",
"DUPLICATE" : "222",
"BAD_REQUEST" : "400",
"NO_USER" : "201",

"TABLE_USER_APP_ROLES" : "user_app_roles",
"TABLE_ACCESS_ROLES" : "access_roles",
"TABLE_APPS" : "Apps",
"TABLE_SERVICE_FIELD_VALUES" : "serviceFieldValues",
"TABLE_BACKEND_USERS" : "backend_users",
"TABLE_ROLES" : "roles",
"TABLE_SERVICES" : "services",
"TABLE_APP_USER" : "app_user",
"TABLE_DEVICE" : "deviceTable",
"TABLE_ACTIVITY_LOG" : "activity_log",
"TABLE_ERROR_LOG" : "error_log",
"TABLE_MESSAGE_LOG" : "message_log",
"TABLE_SERVICES_TABLES" : "serviceTables",
"TABLE_API_LOG" : "api_log",
"TABLE_APP_META_DATA" : "app_meta_data",
"TABLE_CIRCLE_MASTER" : "circle_master"
	}
